Multiple Linear Regression
…
pastures %>%
  rename(index = Rental,
         rent.arable = price,
         cows = per,
         difference = grassy,
         rent.grassy = acre) %>%
  select(c("rent.arable",
         "cows",
         "difference",
         "rent.grassy")) -> pastures.processed

pastures.processed

## # A tibble: 67 x 4
##    rent.arable  cows difference rent.grassy
##          <dbl> <dbl>      <dbl>       <dbl>
##  1        15.5 17.2        0.24        18.4
##  2        22.3 18.5        0.2         20  
##  3        12.4 11.1        0.12        11.5
##  4        31.8  5.54       0.12        25  
##  5        83.9  5.44       0.04        62.5
##  6        72.2 20.4        0.05        82.5
##  7        27.1 31.2        0.27        25  
##  8        40.4  4.29       0.1         30.7
##  9        12.4  8.69       0.41        12  
## 10        69.4  6.63       0.04        61.2
## # ... with 57 more rows
…
