…
automl.models <- h2o.automl(x = predictors,
                            y = target,
                            training_frame = train,
                            leaderboard_frame = valid,
                            max_runtime_secs  = 30)

top.scoring.model <- automl.models@leader             # Take the highest scoring model

prediction <- h2o.predict(object = top.scoring.model, # Predicting the winner (A/B)
                        newdata = test)

as.tibble(prediction)

## # A tibble: 916 x 3
##    predict win_A   win_B
##    <fct>   <dbl>   <dbl>
##  1 win_A   0.92  0.0800 
##  2 win_A   0.998 0.00154
##  3 win_A   1     0      
##  4 win_A   0.942 0.0578 
##  5 win_A   0.889 0.111  
##  6 win_B   0.79  0.210  
##  7 win_A   0.94  0.06   
##  8 win_A   0.92  0.0800 
##  9 win_A   0.88  0.12   
## 10 win_A   0.969 0.0313 
## # ... with 906 more rows
…
