Automated Machine Learning to predict boxing match winners
…
automl.models <- h2o.automl(x = predictors,
                            y = target,
                            training_frame = train,
                            leaderboard_frame = valid,
                            max_runtime_secs  = 30)

top.scoring.model <- automl.models@leader             # Take the highest scoring model

prediction <- h2o.predict(object = top.scoring.model, # Predicting the winner (A/B)
                        newdata = test)

as.tibble(prediction)

## # A tibble: 916 x 3
##    predict win_A  win_B
##    <fct>   <dbl>  <dbl>
##  1 win_A   0.889 0.111 
##  2 win_A   0.889 0.111 
##  3 win_A   0.963 0.0370
##  4 win_A   0.925 0.0755
##  5 win_B   0.778 0.222 
##  6 win_A   0.815 0.185 
##  7 win_A   0.961 0.0390
##  8 win_A   0.924 0.0760
##  9 win_A   0.852 0.148 
## 10 win_A   0.926 0.0741
## # ... with 906 more rows
…
