Implementing Linear Regression
…
with rental price per grassy acre being the dependent variable.

Aim: find one variable that can be used to predict the dependent variable

First we’ll do some preparation of the data, renaming of columns. This could have been dealt with in the source file of the data but where’s the fun in that! I’m viewing this as a reinforement of my data prep skills.

pastures %>%
  rename(index = Rental,
         rent.arable = price,
         cows = per,
         difference = grassy,
         rent.grassy = acre) -> pastures
pastures

## # A tibble: 67 x 5
##    index rent.arable  cows difference rent.grassy
##    <chr>       <dbl> <dbl>      <dbl>       <dbl>
##  1 1            15.5 17.2      0.240         18.4
##  2 2            22.3 18.5      0.200         20.0
##  3 3            12.4 11.1      0.120         11.5
##  4 4            31.8  5.54     0.120         25.0
##  5 5            83.9  5.44     0.0400        62.5
##  6 6            72.2 20.4      0.0500        82.5
##  7 7            27.1 31.2      0.270         25.0
##  8 8            40.4  4.29     0.100         30.7
##  9 9            12.4  8.69     0.410         12.0
## 10 10           69.4  6.63     0.0400        61.2
## # ... with 57 more rows
…
With this in mind we’ll take this data off to one side to make things neater (using the trusty tidyverse).

pastures %>%
  select("rent.arable","rent.grassy") -> pastures.rent

pastures.rent

## # A tibble: 67 x 2
##    rent.arable rent.grassy
##          <dbl>       <dbl>
##  1        15.5        18.4
##  2        22.3        20.0
##  3        12.4        11.5
##  4        31.8        25.0
##  5        83.9        62.5
##  6        72.2        82.5
##  7        27.1        25.0
##  8        40.4        30.7
##  9        12.4        12.0
## 10        69.4        61.2
## # ... with 57 more rows
…
