Tibbles
…
## # A tibble: 2 x 3
##   a         b     c
##   <chr> <dbl> <dbl>
## 1 a      1.00  5.00
## 2 b      2.00 11.0

This may be handy in a pinch but I don’t see a need to use tribbles.

A great benefit of tibbles is printing the data. I can’t count the amount of times I accidentally try to print a 100000+ row data frame and forget that it will cause my laptop to crash due to it trying to print every row of data. Thankfully tibbles help remedy this mistake.

nycflights13::flights %>% #over 300000 rows of data
  as.tibble()

## # A tibble: 336,776 x 19
##     year month   day dep_t~ sched_~ dep_d~ arr_~ sched~ arr_d~ carr~ flig~
##    <int> <int> <int>  <int>   <int>  <dbl> <int>  <int>  <dbl> <chr> <int>
##  1  2013     1     1    517     515   2.00   830    819  11.0  UA     1545
##  2  2013     1     1    533     529   4.00   850    830  20.0  UA     1714
##  3  2013     1     1    542     540   2.00   923    850  33.0  AA     1141
##  4  2013     1     1    544     545  -1.00  1004   1022 -18.0  B6      725
##  5  2013     1     1    554     600  -6.00   812    837 -25.0  DL      461
##  6  2013     1     1    554     558  -4.00   740    728  12.0  UA     1696
##  7  2013     1     1    555     600  -5.00   913    854  19.0  B6      507
##  8  2013     1     1    557     600  -3.00   709    723 -14.0  EV     5708
##  9  2013     1     1    557     600  -3.00   838    846 - 8.00 B6       79
## 10  2013     1     1    558     600  -2.00   753    745   8.00 AA      301
## # ... with 336,766 more rows, and 8 more variables: tailnum <chr>, origin
## #   <chr>, dest <chr>, air_time <dbl>, distance <dbl>, hour <dbl>, minute
## #   <dbl>, time_hour <dttm>
…
